Lab5/simulation/qsim/lab5.msim.vcd
$comment
	File created using the following command:
		vcd file lab5.msim.vcd -direction
$end
$date
	Mon Oct 09 18:07:37 2023
$end
$version
	ModelSim Version 10.1d
$end
$timescale
	1ps
$end
$scope module lab5_vlg_vec_tst $end
$var reg 4 ! A [3:0] $end
$var reg 4 " B [3:0] $end
$var reg 2 # ctrl [1:0] $end
$var wire 1 $ addOrSub $end
$var wire 1 % ctrlOut $end
$var wire 1 & overflow $end
$var wire 1 ' S [7] $end
$var wire 1 ( S [6] $end
$var wire 1 ) S [5] $end
$var wire 1 * S [4] $end
$var wire 1 + S [3] $end
$var wire 1 , S [2] $end
$var wire 1 - S [1] $end
$var wire 1 . S [0] $end
$var wire 1 / sampler $end
$scope module i1 $end
$var wire 1 0 gnd $end
$var wire 1 1 vcc $end
$var wire 1 2 unknown $end
$var tri1 1 3 devclrn $end
$var tri1 1 4 devpor $end
$var tri1 1 5 devoe $end
$var wire 1 6 ~QUARTUS_CREATED_GND~I_combout $end
$var wire 1 7 ctrl[0]~input_o $end
$var wire 1 8 ctrl[1]~input_o $end
$var wire 1 9 B[3]~input_o $end
$var wire 1 : A[1]~input_o $end
$var wire 1 ; B[1]~input_o $end
$var wire 1 < B[0]~input_o $end
$var wire 1 = A[0]~input_o $end
$var wire 1 > inst|inst5|inst5~combout $end
$var wire 1 ? A[3]~input_o $end
$var wire 1 @ B[2]~input_o $end
$var wire 1 A A[2]~input_o $end
$var wire 1 B inst|9~combout $end
$var wire 1 C inst1|inst31~combout $end
$var wire 1 D inst1|inst3|inst4~combout $end
$var wire 1 E inst1|inst4|inst4~combout $end
$var wire 1 F inst1|inst8|inst~combout $end
$var wire 1 G inst1|inst6|inst4~combout $end
$var wire 1 H inst1|inst6|inst5~combout $end
$var wire 1 I inst1|inst32~combout $end
$var wire 1 J inst1|inst5|inst~0_combout $end
$var wire 1 K inst1|inst5|inst3~combout $end
$var wire 1 L inst1|inst|inst4~combout $end
$var wire 1 M inst1|inst12|inst~combout $end
$var wire 1 N inst1|inst10|inst5~combout $end
$var wire 1 O inst|inst|inst5~combout $end
$var wire 1 P inst4|inst7~0_combout $end
$var wire 1 Q inst1|inst5|inst5~combout $end
$var wire 1 R inst4|inst7~1_combout $end
$var wire 1 S inst4|inst6~0_combout $end
$var wire 1 T inst1|inst11|inst5~combout $end
$var wire 1 U inst4|inst5~0_combout $end
$var wire 1 V inst|inst2|inst4~combout $end
$var wire 1 W inst4|inst4~0_combout $end
$var wire 1 X inst1|inst12|inst3~combout $end
$var wire 1 Y inst4|inst3~0_combout $end
$var wire 1 Z inst4|inst2~0_combout $end
$var wire 1 [ inst4|inst~0_combout $end
$var wire 1 \ inst4|inst1~0_combout $end
$upscope $end
$upscope $end
$enddefinitions $end
#0
$dumpvars
b0 !
b1001 "
b0 #
0$
0%
1&
1.
0-
0,
1+
0*
0)
0(
0'
x/
00
11
x2
13
14
15
06
07
08
19
0:
0;
1<
0=
0>
0?
0@
0A
0B
0C
0D
0E
0F
0G
0H
0I
0J
0K
0L
0M
0N
0O
1P
0Q
0R
0S
0T
0U
0V
0W
0X
1Y
0Z
0[
1\
$end
#10000
b1 !
b1011 "
b1010 "
b1 #
0<
1;
1=
0/
17
1X
0P
1V
1$
1[
1Z
0Y
1-
1,
0+
1R
1S
1U
1W
1'
1(
1)
1*
#20000
b11 !
b11 #
b10 !
b1011 "
b10 #
1<
0=
1:
1/
07
18
1>
1L
0X
1I
0V
0$
1%
0\
0Z
1Y
0R
0S
0U
0W
0.
0,
1+
0'
0(
0)
0*
1Z
0Y
1W
1,
0+
1*
#30000
b1111 "
b1101 "
b11 !
b1100 "
b11 #
1=
0<
0;
1@
0/
17
0L
1X
1V
1$
0Z
0[
1M
0X
0,
0-
1Z
1Y
1T
1,
1+
0W
0Y
0*
0+
1U
1)
#40000
b111 !
b101 !
b1 #
b100 !
b1101 "
b0 #
1<
0=
0:
1A
1/
07
08
0>
1L
0M
1G
0I
1C
1O
1P
0$
0%
1\
1Y
1R
1S
1W
0T
1.
1+
1'
1(
1*
0Z
0U
0Y
0R
0S
0,
0)
0+
0'
0(
#50000
b1111 "
b101 !
b1110 "
b1 #
1=
0<
1;
0/
17
1D
0L
1M
0O
0P
1$
1Z
1[
1Y
1N
1T
1,
1-
1+
0Y
1R
1S
1U
0+
1'
1(
1)
#60000
b111 !
b11 #
b110 !
b1111 "
b10 #
1<
0=
1:
1/
07
18
1>
0D
1E
0M
0G
1H
1I
1O
0$
1%
0\
0Z
0R
0U
0W
1X
0T
0.
0,
0'
0)
0*
1W
1U
1*
1)
1Y
0U
1+
0)
#70000
b111 "
b11 "
b1 "
b111 !
b0 "
b11 #
1=
0<
0;
0@
09
0/
17
0E
0X
1G
0H
0V
0C
0I
1$
0[
0G
0N
0-
0Y
0+
0W
0S
0*
0(
#80000
b1111 !
b1011 !
b1001 !
b1 #
b1000 !
b1 "
b0 #
1<
0=
0:
0A
1?
1/
07
08
0>
1D
0O
1P
0$
0%
1\
1Z
1R
1S
1U
1X
1.
1,
1'
1(
1)
0Z
1Y
0R
0S
0U
0,
1+
0'
0(
0)
#90000
b11 "
b1001 !
b10 "
b1 #
1=
0<
1;
0/
17
0D
1E
1B
1$
1Z
1[
0Y
1G
0X
0&
1,
1-
0+
#100000
b1011 !
b11 #
b1010 !
b11 "
b10 #
1<
0=
1:
1/
07
18
1>
1D
1L
0B
0P
0$
1%
0\
0Z
1W
1X
1&
0.
0,
1*
1Z
1,
1Y
1+
#110000
b111 "
b101 "
b1011 !
b100 "
b11 #
1=
0<
0;
1@
0/
17
0D
0E
0L
1B
0G
1H
1K
1$
0Z
0[
0H
1Q
0&
0,
0-
1Z
0W
0Q
1,
0*
1U
1S
1)
1(
0S
0(
#120000
b1111 !
b1101 !
b1 #
b1100 !
b101 "
b0 #
1<
0=
0:
1A
1/
07
08
0>
1D
1L
0X
1G
0B
1O
1V
1P
0$
0%
1\
1R
1S
1X
1&
1.
1'
1(
0Z
0Y
1W
0R
0S
0U
0,
0+
1*
0'
0(
0)
#130000
b111 "
b1101 !
b110 "
b1 #
1=
0<
1;
0/
17
1E
0L
0X
1B
0O
0V
1$
1Z
1[
1Y
0G
1H
1X
0&
1,
1-
1+
0Y
0W
1Q
0+
0*
#140000
b1111 !
b11 #
b1110 !
b111 "
b10 #
1<
0=
1:
1/
07
18
1>
0E
1J
0X
1G
0B
1O
0P
1V
0$
1%
0\
0Z
1Y
0G
0K
1&
0.
0,
1+
0Y
1W
1S
0+
1*
1(
0W
1U
0*
1)
#150000
b1111 "
b1011 "
b1001 "
b1111 !
b1000 "
b11 #
1=
0<
0;
0@
19
0/
17
0D
0J
1M
0H
1K
0V
1C
1I
1$
0[
1R
0S
0M
1X
0K
0Q
1N
1T
0-
1'
0(
0U
0N
0T
0)
1W
1Y
1*
1+
0R
1S
1U
0'
1(
1)
#160000
b111 !
b11 !
b1 !
b1 #
b0 !
b1001 "
b0 #
1<
0=
0:
0A
0?
1/
07
08
0>
0X
0I
0C
0O
1P
0$
0%
1\
1Z
1R
0Y
0W
1.
1,
1'
0+
0*
0Z
1Y
0U
0R
0S
0,
1+
0)
0'
0(
#170000
b1011 "
b1 !
b1010 "
b1 #
1=
0<
1;
0/
17
1X
0P
1V
1$
1Z
1[
0Y
1,
1-
0+
1R
1S
1U
1W
1'
1(
1)
1*
#180000
b11 !
b11 #
b10 !
b1011 "
b10 #
1<
0=
1:
1/
07
18
1>
1L
0X
1I
0V
0$
1%
0\
0Z
1Y
0R
0S
0U
0W
0.
0,
1+
0'
0(
0)
0*
1Z
0Y
1W
1,
0+
1*
#190000
b1111 "
b1101 "
b11 !
b1100 "
b11 #
1=
0<
0;
1@
0/
17
0L
1X
1V
1$
0Z
0[
1M
0X
0,
0-
1Z
1Y
1T
1,
1+
0W
0Y
0*
0+
1U
1)
#200000
b111 !
b101 !
b1 #
b100 !
b1101 "
b0 #
1<
0=
0:
1A
1/
07
08
0>
1L
0M
1G
0I
1C
1O
1P
0$
0%
1\
1Y
1R
1S
1W
0T
1.
1+
1'
1(
1*
0Z
0U
0Y
0R
0S
0,
0)
0+
0'
0(
#210000
b1111 "
b101 !
b1110 "
b1 #
1=
0<
1;
0/
17
1D
0L
1M
0O
0P
1$
1Z
1[
1Y
1N
1T
1,
1-
1+
0Y
1R
1S
1U
0+
1'
1(
1)
#220000
b111 !
b11 #
b110 !
b1111 "
b10 #
1<
0=
1:
1/
07
18
1>
0D
1E
0M
0G
1H
1I
1O
0$
1%
0\
0Z
0R
0U
0W
1X
0T
0.
0,
0'
0)
0*
1W
1U
1*
1)
1Y
0U
1+
0)
#230000
b111 "
b11 "
b1 "
b111 !
b0 "
b11 #
1=
0<
0;
0@
09
0/
17
0E
0X
1G
0H
0V
0C
0I
1$
0[
0G
0N
0-
0Y
0+
0W
0S
0*
0(
#240000
b1111 !
b1011 !
b1001 !
b1 #
b1000 !
b1 "
b0 #
1<
0=
0:
0A
1?
1/
07
08
0>
1D
0O
1P
0$
0%
1\
1Z
1R
1S
1U
1X
1.
1,
1'
1(
1)
0Z
1Y
0R
0S
0U
0,
1+
0'
0(
0)
#250000
b11 "
b1001 !
b10 "
b1 #
1=
0<
1;
0/
17
0D
1E
1B
1$
1Z
1[
0Y
1G
0X
0&
1,
1-
0+
#260000
b1011 !
b11 #
b1010 !
b11 "
b10 #
1<
0=
1:
1/
07
18
1>
1D
1L
0B
0P
0$
1%
0\
0Z
1W
1X
1&
0.
0,
1*
1Z
1,
1Y
1+
#270000
b111 "
b101 "
b1011 !
b100 "
b11 #
1=
0<
0;
1@
0/
17
0D
0E
0L
1B
0G
1H
1K
1$
0Z
0[
0H
1Q
0&
0,
0-
1Z
0W
0Q
1,
0*
1U
1S
1)
1(
0S
0(
#280000
b1111 !
b1101 !
b1 #
b1100 !
b101 "
b0 #
1<
0=
0:
1A
1/
07
08
0>
1D
1L
0X
1G
0B
1O
1V
1P
0$
0%
1\
1R
1S
1X
1&
1.
1'
1(
0Z
0Y
1W
0R
0S
0U
0,
0+
1*
0'
0(
0)
#290000
b111 "
b1101 !
b110 "
b1 #
1=
0<
1;
0/
17
1E
0L
0X
1B
0O
0V
1$
1Z
1[
1Y
0G
1H
1X
0&
1,
1-
1+
0Y
0W
1Q
0+
0*
#300000
b1111 !
b11 #
b1110 !
b111 "
b10 #
1<
0=
1:
1/
07
18
1>
0E
1J
0X
1G
0B
1O
0P
1V
0$
1%
0\
0Z
1Y
0G
0K
1&
0.
0,
1+
0Y
1W
1S
0+
1*
1(
0W
1U
0*
1)
#310000
b1111 "
b1011 "
b1001 "
b1111 !
b1000 "
b11 #
1=
0<
0;
0@
19
0/
17
0D
0J
1M
0H
1K
0V
1C
1I
1$
0[
1R
0S
0M
1X
0K
0Q
1N
1T
0-
1'
0(
0U
0N
0T
0)
1W
1Y
1*
1+
0R
1S
1U
0'
1(
1)
#320000
b111 !
b11 !
b1 !
b1 #
b0 !
b1001 "
b0 #
1<
0=
0:
0A
0?
1/
07
08
0>
0X
0I
0C
0O
1P
0$
0%
1\
1Z
1R
0Y
0W
1.
1,
1'
0+
0*
0Z
1Y
0U
0R
0S
0,
1+
0)
0'
0(
#330000
b1011 "
b1 !
b1010 "
b1 #
1=
0<
1;
0/
17
1X
0P
1V
1$
1Z
1[
0Y
1,
1-
0+
1R
1S
1U
1W
1'
1(
1)
1*
#340000
b11 !
b11 #
b10 !
b1011 "
b10 #
1<
0=
1:
1/
07
18
1>
1L
0X
1I
0V
0$
1%
0\
0Z
1Y
0R
0S
0U
0W
0.
0,
1+
0'
0(
0)
0*
1Z
0Y
1W
1,
0+
1*
#350000
b1111 "
b1101 "
b11 !
b1100 "
b11 #
1=
0<
0;
1@
0/
17
0L
1X
1V
1$
0Z
0[
1M
0X
0,
0-
1Z
1Y
1T
1,
1+
0W
0Y
0*
0+
1U
1)
#360000
b111 !
b101 !
b1 #
b100 !
b1101 "
b0 #
1<
0=
0:
1A
1/
07
08
0>
1L
0M
1G
0I
1C
1O
1P
0$
0%
1\
1Y
1R
1S
1W
0T
1.
1+
1'
1(
1*
0Z
0U
0Y
0R
0S
0,
0)
0+
0'
0(
#370000
b1111 "
b101 !
b1110 "
b1 #
1=
0<
1;
0/
17
1D
0L
1M
0O
0P
1$
1Z
1[
1Y
1N
1T
1,
1-
1+
0Y
1R
1S
1U
0+
1'
1(
1)
#380000
b111 !
b11 #
b110 !
b1111 "
b10 #
1<
0=
1:
1/
07
18
1>
0D
1E
0M
0G
1H
1I
1O
0$
1%
0\
0Z
0R
0U
0W
1X
0T
0.
0,
0'
0)
0*
1W
1U
1*
1)
1Y
0U
1+
0)
#390000
b111 "
b11 "
b1 "
b111 !
b0 "
b11 #
1=
0<
0;
0@
09
0/
17
0E
0X
1G
0H
0V
0C
0I
1$
0[
0G
0N
0-
0Y
0+
0W
0S
0*
0(
#400000
b1111 !
b1011 !
b1001 !
b1 #
b1000 !
b1 "
b0 #
1<
0=
0:
0A
1?
1/
07
08
0>
1D
0O
1P
0$
0%
1\
1Z
1R
1S
1U
1X
1.
1,
1'
1(
1)
0Z
1Y
0R
0S
0U
0,
1+
0'
0(
0)
#410000
b11 "
b1001 !
b10 "
b1 #
1=
0<
1;
0/
17
0D
1E
1B
1$
1Z
1[
0Y
1G
0X
0&
1,
1-
0+
#420000
b1011 !
b11 #
b1010 !
b11 "
b10 #
1<
0=
1:
1/
07
18
1>
1D
1L
0B
0P
0$
1%
0\
0Z
1W
1X
1&
0.
0,
1*
1Z
1,
1Y
1+
#430000
b111 "
b101 "
b1011 !
b100 "
b11 #
1=
0<
0;
1@
0/
17
0D
0E
0L
1B
0G
1H
1K
1$
0Z
0[
0H
1Q
0&
0,
0-
1Z
0W
0Q
1,
0*
1U
1S
1)
1(
0S
0(
#440000
b1111 !
b1101 !
b1 #
b1100 !
b101 "
b0 #
1<
0=
0:
1A
1/
07
08
0>
1D
1L
0X
1G
0B
1O
1V
1P
0$
0%
1\
1R
1S
1X
1&
1.
1'
1(
0Z
0Y
1W
0R
0S
0U
0,
0+
1*
0'
0(
0)
#450000
b111 "
b1101 !
b110 "
b1 #
1=
0<
1;
0/
17
1E
0L
0X
1B
0O
0V
1$
1Z
1[
1Y
0G
1H
1X
0&
1,
1-
1+
0Y
0W
1Q
0+
0*
#460000
b1111 !
b11 #
b1110 !
b111 "
b10 #
1<
0=
1:
1/
07
18
1>
0E
1J
0X
1G
0B
1O
0P
1V
0$
1%
0\
0Z
1Y
0G
0K
1&
0.
0,
1+
0Y
1W
1S
0+
1*
1(
0W
1U
0*
1)
#470000
b1111 "
b1011 "
b1001 "
b1111 !
b1000 "
b11 #
1=
0<
0;
0@
19
0/
17
0D
0J
1M
0H
1K
0V
1C
1I
1$
0[
1R
0S
0M
1X
0K
0Q
1N
1T
0-
1'
0(
0U
0N
0T
0)
1W
1Y
1*
1+
0R
1S
1U
0'
1(
1)
#480000
b111 !
b11 !
b1 !
b1 #
b0 !
b1001 "
b0 #
1<
0=
0:
0A
0?
1/
07
08
0>
0X
0I
0C
0O
1P
0$
0%
1\
1Z
1R
0Y
0W
1.
1,
1'
0+
0*
0Z
1Y
0U
0R
0S
0,
1+
0)
0'
0(
#490000
b1011 "
b1 !
b1010 "
b1 #
1=
0<
1;
0/
17
1X
0P
1V
1$
1Z
1[
0Y
1,
1-
0+
1R
1S
1U
1W
1'
1(
1)
1*
#500000
b11 !
b11 #
b10 !
b1011 "
b10 #
1<
0=
1:
1/
07
18
1>
1L
0X
1I
0V
0$
1%
0\
0Z
1Y
0R
0S
0U
0W
0.
0,
1+
0'
0(
0)
0*
1Z
0Y
1W
1,
0+
1*
#510000
b1111 "
b1101 "
b11 !
b1100 "
b11 #
1=
0<
0;
1@
0/
17
0L
1X
1V
1$
0Z
0[
1M
0X
0,
0-
1Z
1Y
1T
1,
1+
0W
0Y
0*
0+
1U
1)
#520000
b111 !
b101 !
b1 #
b100 !
b1101 "
b0 #
1<
0=
0:
1A
1/
07
08
0>
1L
0M
1G
0I
1C
1O
1P
0$
0%
1\
1Y
1R
1S
1W
0T
1.
1+
1'
1(
1*
0Z
0U
0Y
0R
0S
0,
0)
0+
0'
0(
#530000
b1111 "
b101 !
b1110 "
b1 #
1=
0<
1;
0/
17
1D
0L
1M
0O
0P
1$
1Z
1[
1Y
1N
1T
1,
1-
1+
0Y
1R
1S
1U
0+
1'
1(
1)
#540000
b111 !
b11 #
b110 !
b1111 "
b10 #
1<
0=
1:
1/
07
18
1>
0D
1E
0M
0G
1H
1I
1O
0$
1%
0\
0Z
0R
0U
0W
1X
0T
0.
0,
0'
0)
0*
1W
1U
1*
1)
1Y
0U
1+
0)
#550000
b111 "
b11 "
b1 "
b111 !
b0 "
b11 #
1=
0<
0;
0@
09
0/
17
0E
0X
1G
0H
0V
0C
0I
1$
0[
0G
0N
0-
0Y
0+
0W
0S
0*
0(
#560000
b1111 !
b1011 !
b1001 !
b1 #
b1000 !
b1 "
b0 #
1<
0=
0:
0A
1?
1/
07
08
0>
1D
0O
1P
0$
0%
1\
1Z
1R
1S
1U
1X
1.
1,
1'
1(
1)
0Z
1Y
0R
0S
0U
0,
1+
0'
0(
0)
#570000
b11 "
b1001 !
b10 "
b1 #
1=
0<
1;
0/
17
0D
1E
1B
1$
1Z
1[
0Y
1G
0X
0&
1,
1-
0+
#580000
b1011 !
b11 #
b1010 !
b11 "
b10 #
1<
0=
1:
1/
07
18
1>
1D
1L
0B
0P
0$
1%
0\
0Z
1W
1X
1&
0.
0,
1*
1Z
1,
1Y
1+
#590000
b111 "
b101 "
b1011 !
b100 "
b11 #
1=
0<
0;
1@
0/
17
0D
0E
0L
1B
0G
1H
1K
1$
0Z
0[
0H
1Q
0&
0,
0-
1Z
0W
0Q
1,
0*
1U
1S
1)
1(
0S
0(
#600000
b1111 !
b1101 !
b1 #
b1100 !
b101 "
b0 #
1<
0=
0:
1A
1/
07
08
0>
1D
1L
0X
1G
0B
1O
1V
1P
0$
0%
1\
1R
1S
1X
1&
1.
1'
1(
0Z
0Y
1W
0R
0S
0U
0,
0+
1*
0'
0(
0)
#610000
b111 "
b1101 !
b110 "
b1 #
1=
0<
1;
0/
17
1E
0L
0X
1B
0O
0V
1$
1Z
1[
1Y
0G
1H
1X
0&
1,
1-
1+
0Y
0W
1Q
0+
0*
#620000
b1111 !
b11 #
b1110 !
b111 "
b10 #
1<
0=
1:
1/
07
18
1>
0E
1J
0X
1G
0B
1O
0P
1V
0$
1%
0\
0Z
1Y
0G
0K
1&
0.
0,
1+
0Y
1W
1S
0+
1*
1(
0W
1U
0*
1)
#630000
b1111 "
b1011 "
b1001 "
b1111 !
b1000 "
b11 #
1=
0<
0;
0@
19
0/
17
0D
0J
1M
0H
1K
0V
1C
1I
1$
0[
1R
0S
0M
1X
0K
0Q
1N
1T
0-
1'
0(
0U
0N
0T
0)
1W
1Y
1*
1+
0R
1S
1U
0'
1(
1)
#640000
b111 !
b11 !
b1 !
b1 #
b0 !
b1001 "
b0 #
1<
0=
0:
0A
0?
1/
07
08
0>
0X
0I
0C
0O
1P
0$
0%
1\
1Z
1R
0Y
0W
1.
1,
1'
0+
0*
0Z
1Y
0U
0R
0S
0,
1+
0)
0'
0(
#650000
b1011 "
b1 !
b1010 "
b1 #
1=
0<
1;
0/
17
1X
0P
1V
1$
1Z
1[
0Y
1,
1-
0+
1R
1S
1U
1W
1'
1(
1)
1*
#660000
b11 !
b11 #
b10 !
b1011 "
b10 #
1<
0=
1:
1/
07
18
1>
1L
0X
1I
0V
0$
1%
0\
0Z
1Y
0R
0S
0U
0W
0.
0,
1+
0'
0(
0)
0*
1Z
0Y
1W
1,
0+
1*
#670000
b1111 "
b1101 "
b11 !
b1100 "
b11 #
1=
0<
0;
1@
0/
17
0L
1X
1V
1$
0Z
0[
1M
0X
0,
0-
1Z
1Y
1T
1,
1+
0W
0Y
0*
0+
1U
1)
#680000
b111 !
b101 !
b1 #
b100 !
b1101 "
b0 #
1<
0=
0:
1A
1/
07
08
0>
1L
0M
1G
0I
1C
1O
1P
0$
0%
1\
1Y
1R
1S
1W
0T
1.
1+
1'
1(
1*
0Z
0U
0Y
0R
0S
0,
0)
0+
0'
0(
#690000
b1111 "
b101 !
b1110 "
b1 #
1=
0<
1;
0/
17
1D
0L
1M
0O
0P
1$
1Z
1[
1Y
1N
1T
1,
1-
1+
0Y
1R
1S
1U
0+
1'
1(
1)
#700000
b111 !
b11 #
b110 !
b1111 "
b10 #
1<
0=
1:
1/
07
18
1>
0D
1E
0M
0G
1H
1I
1O
0$
1%
0\
0Z
0R
0U
0W
1X
0T
0.
0,
0'
0)
0*
1W
1U
1*
1)
1Y
0U
1+
0)
#710000
b111 "
b11 "
b1 "
b111 !
b0 "
b11 #
1=
0<
0;
0@
09
0/
17
0E
0X
1G
0H
0V
0C
0I
1$
0[
0G
0N
0-
0Y
0+
0W
0S
0*
0(
#720000
b1111 !
b1011 !
b1001 !
b1 #
b1000 !
b1 "
b0 #
1<
0=
0:
0A
1?
1/
07
08
0>
1D
0O
1P
0$
0%
1\
1Z
1R
1S
1U
1X
1.
1,
1'
1(
1)
0Z
1Y
0R
0S
0U
0,
1+
0'
0(
0)
#730000
b11 "
b1001 !
b10 "
b1 #
1=
0<
1;
0/
17
0D
1E
1B
1$
1Z
1[
0Y
1G
0X
0&
1,
1-
0+
#740000
b1011 !
b11 #
b1010 !
b11 "
b10 #
1<
0=
1:
1/
07
18
1>
1D
1L
0B
0P
0$
1%
0\
0Z
1W
1X
1&
0.
0,
1*
1Z
1,
1Y
1+
#750000
b111 "
b101 "
b1011 !
b100 "
b11 #
1=
0<
0;
1@
0/
17
0D
0E
0L
1B
0G
1H
1K
1$
0Z
0[
0H
1Q
0&
0,
0-
1Z
0W
0Q
1,
0*
1U
1S
1)
1(
0S
0(
#760000
b1111 !
b1101 !
b1 #
b1100 !
b101 "
b0 #
1<
0=
0:
1A
1/
07
08
0>
1D
1L
0X
1G
0B
1O
1V
1P
0$
0%
1\
1R
1S
1X
1&
1.
1'
1(
0Z
0Y
1W
0R
0S
0U
0,
0+
1*
0'
0(
0)
#770000
b111 "
b1101 !
b110 "
b1 #
1=
0<
1;
0/
17
1E
0L
0X
1B
0O
0V
1$
1Z
1[
1Y
0G
1H
1X
0&
1,
1-
1+
0Y
0W
1Q
0+
0*
#780000
b1111 !
b11 #
b1110 !
b111 "
b10 #
1<
0=
1:
1/
07
18
1>
0E
1J
0X
1G
0B
1O
0P
1V
0$
1%
0\
0Z
1Y
0G
0K
1&
0.
0,
1+
0Y
1W
1S
0+
1*
1(
0W
1U
0*
1)
#790000
b1111 "
b1011 "
b1001 "
b1111 !
b1000 "
b11 #
1=
0<
0;
0@
19
0/
17
0D
0J
1M
0H
1K
0V
1C
1I
1$
0[
1R
0S
0M
1X
0K
0Q
1N
1T
0-
1'
0(
0U
0N
0T
0)
1W
1Y
1*
1+
0R
1S
1U
0'
1(
1)
#800000
b111 !
b11 !
b1 !
b1 #
b0 !
b1001 "
b0 #
1<
0=
0:
0A
0?
1/
07
08
0>
0X
0I
0C
0O
1P
0$
0%
1\
1Z
1R
0Y
0W
1.
1,
1'
0+
0*
0Z
1Y
0U
0R
0S
0,
1+
0)
0'
0(
#810000
b1011 "
b1 !
b1010 "
b1 #
1=
0<
1;
0/
17
1X
0P
1V
1$
1Z
1[
0Y
1,
1-
0+
1R
1S
1U
1W
1'
1(
1)
1*
#820000
b11 !
b11 #
b10 !
b1011 "
b10 #
1<
0=
1:
1/
07
18
1>
1L
0X
1I
0V
0$
1%
0\
0Z
1Y
0R
0S
0U
0W
0.
0,
1+
0'
0(
0)
0*
1Z
0Y
1W
1,
0+
1*
#830000
b1111 "
b1101 "
b11 !
b1100 "
b11 #
1=
0<
0;
1@
0/
17
0L
1X
1V
1$
0Z
0[
1M
0X
0,
0-
1Z
1Y
1T
1,
1+
0W
0Y
0*
0+
1U
1)
#840000
b111 !
b101 !
b1 #
b100 !
b1101 "
b0 #
1<
0=
0:
1A
1/
07
08
0>
1L
0M
1G
0I
1C
1O
1P
0$
0%
1\
1Y
1R
1S
1W
0T
1.
1+
1'
1(
1*
0Z
0U
0Y
0R
0S
0,
0)
0+
0'
0(
#850000
b1111 "
b101 !
b1110 "
b1 #
1=
0<
1;
0/
17
1D
0L
1M
0O
0P
1$
1Z
1[
1Y
1N
1T
1,
1-
1+
0Y
1R
1S
1U
0+
1'
1(
1)
#860000
b111 !
b11 #
b110 !
b1111 "
b10 #
1<
0=
1:
1/
07
18
1>
0D
1E
0M
0G
1H
1I
1O
0$
1%
0\
0Z
0R
0U
0W
1X
0T
0.
0,
0'
0)
0*
1W
1U
1*
1)
1Y
0U
1+
0)
#870000
b111 "
b11 "
b1 "
b111 !
b0 "
b11 #
1=
0<
0;
0@
09
0/
17
0E
0X
1G
0H
0V
0C
0I
1$
0[
0G
0N
0-
0Y
0+
0W
0S
0*
0(
#880000
b1111 !
b1011 !
b1001 !
b1 #
b1000 !
b1 "
b0 #
1<
0=
0:
0A
1?
1/
07
08
0>
1D
0O
1P
0$
0%
1\
1Z
1R
1S
1U
1X
1.
1,
1'
1(
1)
0Z
1Y
0R
0S
0U
0,
1+
0'
0(
0)
#890000
b11 "
b1001 !
b10 "
b1 #
1=
0<
1;
0/
17
0D
1E
1B
1$
1Z
1[
0Y
1G
0X
0&
1,
1-
0+
#900000
b1011 !
b11 #
b1010 !
b11 "
b10 #
1<
0=
1:
1/
07
18
1>
1D
1L
0B
0P
0$
1%
0\
0Z
1W
1X
1&
0.
0,
1*
1Z
1,
1Y
1+
#910000
b111 "
b101 "
b1011 !
b100 "
b11 #
1=
0<
0;
1@
0/
17
0D
0E
0L
1B
0G
1H
1K
1$
0Z
0[
0H
1Q
0&
0,
0-
1Z
0W
0Q
1,
0*
1U
1S
1)
1(
0S
0(
#920000
b1111 !
b1101 !
b1 #
b1100 !
b101 "
b0 #
1<
0=
0:
1A
1/
07
08
0>
1D
1L
0X
1G
0B
1O
1V
1P
0$
0%
1\
1R
1S
1X
1&
1.
1'
1(
0Z
0Y
1W
0R
0S
0U
0,
0+
1*
0'
0(
0)
#930000
b111 "
b1101 !
b110 "
b1 #
1=
0<
1;
0/
17
1E
0L
0X
1B
0O
0V
1$
1Z
1[
1Y
0G
1H
1X
0&
1,
1-
1+
0Y
0W
1Q
0+
0*
#940000
b1111 !
b11 #
b1110 !
b111 "
b10 #
1<
0=
1:
1/
07
18
1>
0E
1J
0X
1G
0B
1O
0P
1V
0$
1%
0\
0Z
1Y
0G
0K
1&
0.
0,
1+
0Y
1W
1S
0+
1*
1(
0W
1U
0*
1)
#950000
b1111 "
b1011 "
b1001 "
b1111 !
b1000 "
b11 #
1=
0<
0;
0@
19
0/
17
0D
0J
1M
0H
1K
0V
1C
1I
1$
0[
1R
0S
0M
1X
0K
0Q
1N
1T
0-
1'
0(
0U
0N
0T
0)
1W
1Y
1*
1+
0R
1S
1U
0'
1(
1)
#960000
b111 !
b11 !
b1 !
b1 #
b0 !
b1001 "
b0 #
1<
0=
0:
0A
0?
1/
07
08
0>
0X
0I
0C
0O
1P
0$
0%
1\
1Z
1R
0Y
0W
1.
1,
1'
0+
0*
0Z
1Y
0U
0R
0S
0,
1+
0)
0'
0(
#970000
b1011 "
b1 !
b1010 "
b1 #
1=
0<
1;
0/
17
1X
0P
1V
1$
1Z
1[
0Y
1,
1-
0+
1R
1S
1U
1W
1'
1(
1)
1*
#980000
b11 !
b11 #
b10 !
b1011 "
b10 #
1<
0=
1:
1/
07
18
1>
1L
0X
1I
0V
0$
1%
0\
0Z
1Y
0R
0S
0U
0W
0.
0,
1+
0'
0(
0)
0*
1Z
0Y
1W
1,
0+
1*
#990000
b1111 "
b1101 "
b11 !
b1100 "
b11 #
1=
0<
0;
1@
0/
17
0L
1X
1V
1$
0Z
0[
1M
0X
0,
0-
1Z
1Y
1T
1,
1+
0W
0Y
0*
0+
1U
1)
