Lab3/simulation/qsim/lab3.msim.vcd
$comment
	File created using the following command:
		vcd file lab3.msim.vcd -direction
$end
$date
	Fri Sep 29 14:40:58 2023
$end
$version
	ModelSim Version 10.1d
$end
$timescale
	1ps
$end
$scope module lab3_p1_vlg_vec_tst $end
$var reg 1 ! A $end
$var reg 1 " B $end
$var reg 1 # C $end
$var reg 1 $ D $end
$var wire 1 % F0 $end
$var wire 1 & F1 $end
$var wire 1 ' F2 $end
$var wire 1 ( sampler $end
$scope module i1 $end
$var wire 1 ) gnd $end
$var wire 1 * vcc $end
$var wire 1 + unknown $end
$var tri1 1 , devclrn $end
$var tri1 1 - devpor $end
$var tri1 1 . devoe $end
$var wire 1 / ~QUARTUS_CREATED_GND~I_combout $end
$var wire 1 0 B~input_o $end
$var wire 1 1 C~input_o $end
$var wire 1 2 D~input_o $end
$var wire 1 3 A~input_o $end
$var wire 1 4 inst~combout $end
$var wire 1 5 inst17~0_combout $end
$var wire 1 6 inst37~0_combout $end
$upscope $end
$upscope $end
$enddefinitions $end
#0
$dumpvars
0!
0"
0#
0$
0%
1&
0'
x(
0)
1*
x+
1,
1-
1.
0/
00
01
02
03
04
15
06
$end
#10000
1$
12
0(
16
1%
#20000
1#
0$
11
02
1(
#30000
1$
12
0(
06
0%
#40000
1"
0#
0$
10
01
02
1(
05
16
0&
1%
#50000
1$
12
0(
06
0%
#60000
1#
0$
11
02
1(
15
1&
#70000
1$
12
0(
16
1%
#80000
1!
0"
0#
0$
13
00
01
02
1(
#90000
1$
12
0(
06
0%
#100000
1#
0$
11
02
1(
05
0&
#110000
1$
12
0(
16
1%
#120000
1"
0#
0$
10
01
02
1(
14
06
1'
0%
#130000
1$
12
0(
04
16
0'
1%
#140000
1#
0$
11
02
1(
15
1&
#150000
1$
12
0(
06
0%
#160000
0!
0"
0#
0$
03
00
01
02
1(
