Lab3_p2/simulation/qsim/Lab3_p2.msim.vcd
$comment
	File created using the following command:
		vcd file Lab3_p2.msim.vcd -direction
$end
$date
	Fri Sep 29 21:47:44 2023
$end
$version
	ModelSim Version 10.1d
$end
$timescale
	1ps
$end
$scope module Lab3_p2_vlg_vec_tst $end
$var reg 1 ! W $end
$var reg 1 " X $end
$var reg 1 # Y $end
$var reg 1 $ Z $end
$var wire 1 % f0 $end
$var wire 1 & f1 $end
$var wire 1 ' f2 $end
$var wire 1 ( f3 $end
$var wire 1 ) f4 $end
$var wire 1 * f5 $end
$var wire 1 + f6 $end
$var wire 1 , f7 $end
$var wire 1 - f8 $end
$var wire 1 . f9 $end
$var wire 1 / f10 $end
$var wire 1 0 f11 $end
$var wire 1 1 f12 $end
$var wire 1 2 f13 $end
$var wire 1 3 f14 $end
$var wire 1 4 f15 $end
$var wire 1 5 sampler $end
$scope module i1 $end
$var wire 1 6 gnd $end
$var wire 1 7 vcc $end
$var wire 1 8 unknown $end
$var tri1 1 9 devclrn $end
$var tri1 1 : devpor $end
$var tri1 1 ; devoe $end
$var wire 1 < ~QUARTUS_CREATED_GND~I_combout $end
$var wire 1 = X~input_o $end
$var wire 1 > Y~input_o $end
$var wire 1 ? Z~input_o $end
$var wire 1 @ W~input_o $end
$var wire 1 A inst20~0_combout $end
$var wire 1 B inst20~1_combout $end
$var wire 1 C inst20~2_combout $end
$var wire 1 D inst20~3_combout $end
$var wire 1 E inst20~4_combout $end
$var wire 1 F inst20~5_combout $end
$var wire 1 G inst20~6_combout $end
$var wire 1 H inst20~7_combout $end
$var wire 1 I inst20~8_combout $end
$var wire 1 J inst20~9_combout $end
$var wire 1 K inst20~10_combout $end
$var wire 1 L inst20~11_combout $end
$var wire 1 M inst20~12_combout $end
$var wire 1 N inst20~13_combout $end
$var wire 1 O inst20~14_combout $end
$var wire 1 P inst20~15_combout $end
$upscope $end
$upscope $end
$enddefinitions $end
#0
$dumpvars
0!
0"
0#
0$
1%
0&
0'
0(
0)
0*
0+
0,
0-
0.
0/
00
01
02
03
04
x5
06
17
x8
19
1:
1;
0<
0=
0>
0?
0@
0A
0B
0C
0D
0E
0F
0G
0H
0I
0J
0K
0L
0M
0N
0O
1P
$end
#4000
1$
1?
05
1O
0P
1&
0%
#8000
1#
0$
1>
0?
15
1N
0O
1'
0&
#12000
1$
1?
05
1M
0N
1(
0'
#16000
1"
0#
0$
1=
0>
0?
15
1L
0M
1)
0(
#20000
1$
1?
05
1K
0L
1*
0)
#24000
1#
0$
1>
0?
15
1J
0K
1+
0*
#28000
1$
1?
05
1I
0J
1,
0+
#32000
1!
0"
0#
0$
1@
0=
0>
0?
15
1H
0I
1-
0,
#36000
1$
1?
05
1G
0H
1.
0-
#40000
1#
0$
1>
0?
15
1F
0G
1/
0.
#44000
1$
1?
05
1E
0F
10
0/
#48000
1"
0#
0$
1=
0>
0?
15
1D
0E
11
00
#52000
1$
1?
05
1C
0D
12
01
#56000
1#
0$
1>
0?
15
1B
0C
13
02
#60000
1$
1?
05
1A
0B
14
03
#64000
0!
0"
0#
0$
0@
0=
0>
0?
15
0A
1P
04
1%
#68000
1$
1?
05
1O
0P
1&
0%
#72000
1#
0$
1>
0?
15
1N
0O
1'
0&
#76000
1$
1?
05
1M
0N
1(
0'
#80000
1"
0#
0$
1=
0>
0?
15
1L
0M
1)
0(
#84000
1$
1?
05
1K
0L
1*
0)
#88000
1#
0$
1>
0?
15
1J
0K
1+
0*
#92000
1$
1?
05
1I
0J
1,
0+
#96000
1!
0"
0#
0$
1@
0=
0>
0?
15
1H
0I
1-
0,
#100000
1$
1?
05
1G
0H
1.
0-
#104000
1#
0$
1>
0?
15
1F
0G
1/
0.
#108000
1$
1?
05
1E
0F
10
0/
#112000
1"
0#
0$
1=
0>
0?
15
1D
0E
11
00
#116000
1$
1?
05
1C
0D
12
01
#120000
1#
0$
1>
0?
15
1B
0C
13
02
#124000
1$
1?
05
1A
0B
14
03
#128000
0!
0"
0#
0$
0@
0=
0>
0?
15
0A
1P
04
1%
#132000
1$
1?
05
1O
0P
1&
0%
#136000
1#
0$
1>
0?
15
1N
0O
1'
0&
#140000
1$
1?
05
1M
0N
1(
0'
#144000
1"
0#
0$
1=
0>
0?
15
1L
0M
1)
0(
#148000
1$
1?
05
1K
0L
1*
0)
#152000
1#
0$
1>
0?
15
1J
0K
1+
0*
#156000
1$
1?
05
1I
0J
1,
0+
#160000
1!
0"
0#
0$
1@
0=
0>
0?
15
1H
0I
1-
0,
#164000
1$
1?
05
1G
0H
1.
0-
#168000
1#
0$
1>
0?
15
1F
0G
1/
0.
#172000
1$
1?
05
1E
0F
10
0/
#176000
1"
0#
0$
1=
0>
0?
15
1D
0E
11
00
#180000
1$
1?
05
1C
0D
12
01
#184000
1#
0$
1>
0?
15
1B
0C
13
02
#188000
1$
1?
05
1A
0B
14
03
#192000
0!
0"
0#
0$
0@
0=
0>
0?
15
0A
1P
04
1%
#196000
1$
1?
05
1O
0P
1&
0%
#200000
1#
0$
1>
0?
15
1N
0O
1'
0&
#204000
1$
1?
05
1M
0N
1(
0'
#208000
1"
0#
0$
1=
0>
0?
15
1L
0M
1)
0(
#212000
1$
1?
05
1K
0L
1*
0)
#216000
1#
0$
1>
0?
15
1J
0K
1+
0*
#220000
1$
1?
05
1I
0J
1,
0+
#224000
1!
0"
0#
0$
1@
0=
0>
0?
15
1H
0I
1-
0,
#228000
1$
1?
05
1G
0H
1.
0-
#232000
1#
0$
1>
0?
15
1F
0G
1/
0.
#236000
1$
1?
05
1E
0F
10
0/
#240000
1"
0#
0$
1=
0>
0?
15
1D
0E
11
00
#244000
1$
1?
05
1C
0D
12
01
#248000
1#
0$
1>
0?
15
1B
0C
13
02
#252000
1$
1?
05
1A
0B
14
03
#256000
0!
0"
0#
0$
0@
0=
0>
0?
15
0A
1P
04
1%
#260000
1$
1?
05
1O
0P
1&
0%
#264000
1#
0$
1>
0?
15
1N
0O
1'
0&
#268000
1$
1?
05
1M
0N
1(
0'
#272000
1"
0#
0$
1=
0>
0?
15
1L
0M
1)
0(
#276000
1$
1?
05
1K
0L
1*
0)
#280000
1#
0$
1>
0?
15
1J
0K
1+
0*
#284000
1$
1?
05
1I
0J
1,
0+
#288000
1!
0"
0#
0$
1@
0=
0>
0?
15
1H
0I
1-
0,
#292000
1$
1?
05
1G
0H
1.
0-
#296000
1#
0$
1>
0?
15
1F
0G
1/
0.
#300000
1$
1?
05
1E
0F
10
0/
#304000
1"
0#
0$
1=
0>
0?
15
1D
0E
11
00
#308000
1$
1?
05
1C
0D
12
01
#312000
1#
0$
1>
0?
15
1B
0C
13
02
#316000
1$
1?
05
1A
0B
14
03
#320000
0!
0"
0#
0$
0@
0=
0>
0?
15
0A
1P
04
1%
#324000
1$
1?
05
1O
0P
1&
0%
#328000
1#
0$
1>
0?
15
1N
0O
1'
0&
#332000
1$
1?
05
1M
0N
1(
0'
#336000
1"
0#
0$
1=
0>
0?
15
1L
0M
1)
0(
#340000
1$
1?
05
1K
0L
1*
0)
#344000
1#
0$
1>
0?
15
1J
0K
1+
0*
#348000
1$
1?
05
1I
0J
1,
0+
#352000
1!
0"
0#
0$
1@
0=
0>
0?
15
1H
0I
1-
0,
#356000
1$
1?
05
1G
0H
1.
0-
#360000
1#
0$
1>
0?
15
1F
0G
1/
0.
#364000
1$
1?
05
1E
0F
10
0/
#368000
1"
0#
0$
1=
0>
0?
15
1D
0E
11
00
#372000
1$
1?
05
1C
0D
12
01
#376000
1#
0$
1>
0?
15
1B
0C
13
02
#380000
1$
1?
05
1A
0B
14
03
#384000
0!
0"
0#
0$
0@
0=
0>
0?
15
0A
1P
04
1%
#388000
1$
1?
05
1O
0P
1&
0%
#392000
1#
0$
1>
0?
15
1N
0O
1'
0&
#396000
1$
1?
05
1M
0N
1(
0'
#400000
1"
0#
0$
1=
0>
0?
15
1L
0M
1)
0(
#404000
1$
1?
05
1K
0L
1*
0)
#408000
1#
0$
1>
0?
15
1J
0K
1+
0*
#412000
1$
1?
05
1I
0J
1,
0+
#416000
1!
0"
0#
0$
1@
0=
0>
0?
15
1H
0I
1-
0,
#420000
1$
1?
05
1G
0H
1.
0-
#424000
1#
0$
1>
0?
15
1F
0G
1/
0.
#428000
1$
1?
05
1E
0F
10
0/
#432000
1"
0#
0$
1=
0>
0?
15
1D
0E
11
00
#436000
1$
1?
05
1C
0D
12
01
#440000
1#
0$
1>
0?
15
1B
0C
13
02
#444000
1$
1?
05
1A
0B
14
03
#448000
0!
0"
0#
0$
0@
0=
0>
0?
15
0A
1P
04
1%
#452000
1$
1?
05
1O
0P
1&
0%
#456000
1#
0$
1>
0?
15
1N
0O
1'
0&
#460000
1$
1?
05
1M
0N
1(
0'
#464000
1"
0#
0$
1=
0>
0?
15
1L
0M
1)
0(
#468000
1$
1?
05
1K
0L
1*
0)
#472000
1#
0$
1>
0?
15
1J
0K
1+
0*
#476000
1$
1?
05
1I
0J
1,
0+
#480000
1!
0"
0#
0$
1@
0=
0>
0?
15
1H
0I
1-
0,
#484000
1$
1?
05
1G
0H
1.
0-
#488000
1#
0$
1>
0?
15
1F
0G
1/
0.
#492000
1$
1?
05
1E
0F
10
0/
#496000
1"
0#
0$
1=
0>
0?
15
1D
0E
11
00
#500000
1$
1?
05
1C
0D
12
01
#504000
1#
0$
1>
0?
15
1B
0C
13
02
#508000
1$
1?
05
1A
0B
14
03
#512000
0!
0"
0#
0$
0@
0=
0>
0?
15
0A
1P
04
1%
#516000
1$
1?
05
1O
0P
1&
0%
#520000
1#
0$
1>
0?
15
1N
0O
1'
0&
#524000
1$
1?
05
1M
0N
1(
0'
#528000
1"
0#
0$
1=
0>
0?
15
1L
0M
1)
0(
#532000
1$
1?
05
1K
0L
1*
0)
#536000
1#
0$
1>
0?
15
1J
0K
1+
0*
#540000
1$
1?
05
1I
0J
1,
0+
#544000
1!
0"
0#
0$
1@
0=
0>
0?
15
1H
0I
1-
0,
#548000
1$
1?
05
1G
0H
1.
0-
#552000
1#
0$
1>
0?
15
1F
0G
1/
0.
#556000
1$
1?
05
1E
0F
10
0/
#560000
1"
0#
0$
1=
0>
0?
15
1D
0E
11
00
#564000
1$
1?
05
1C
0D
12
01
#568000
1#
0$
1>
0?
15
1B
0C
13
02
#572000
1$
1?
05
1A
0B
14
03
#576000
0!
0"
0#
0$
0@
0=
0>
0?
15
0A
1P
04
1%
#580000
1$
1?
05
1O
0P
1&
0%
#584000
1#
0$
1>
0?
15
1N
0O
1'
0&
#588000
1$
1?
05
1M
0N
1(
0'
#592000
1"
0#
0$
1=
0>
0?
15
1L
0M
1)
0(
#596000
1$
1?
05
1K
0L
1*
0)
#600000
1#
0$
1>
0?
15
1J
0K
1+
0*
#604000
1$
1?
05
1I
0J
1,
0+
#608000
1!
0"
0#
0$
1@
0=
0>
0?
15
1H
0I
1-
0,
#612000
1$
1?
05
1G
0H
1.
0-
#616000
1#
0$
1>
0?
15
1F
0G
1/
0.
#620000
1$
1?
05
1E
0F
10
0/
#624000
1"
0#
0$
1=
0>
0?
15
1D
0E
11
00
#628000
1$
1?
05
1C
0D
12
01
#632000
1#
0$
1>
0?
15
1B
0C
13
02
#636000
1$
1?
05
1A
0B
14
03
#640000
0!
0"
0#
0$
0@
0=
0>
0?
15
0A
1P
04
1%
#644000
1$
1?
05
1O
0P
1&
0%
#648000
1#
0$
1>
0?
15
1N
0O
1'
0&
#652000
1$
1?
05
1M
0N
1(
0'
#656000
1"
0#
0$
1=
0>
0?
15
1L
0M
1)
0(
#660000
1$
1?
05
1K
0L
1*
0)
#664000
1#
0$
1>
0?
15
1J
0K
1+
0*
#668000
1$
1?
05
1I
0J
1,
0+
#672000
1!
0"
0#
0$
1@
0=
0>
0?
15
1H
0I
1-
0,
#676000
1$
1?
05
1G
0H
1.
0-
#680000
1#
0$
1>
0?
15
1F
0G
1/
0.
#684000
1$
1?
05
1E
0F
10
0/
#688000
1"
0#
0$
1=
0>
0?
15
1D
0E
11
00
#692000
1$
1?
05
1C
0D
12
01
#696000
1#
0$
1>
0?
15
1B
0C
13
02
#700000
1$
1?
05
1A
0B
14
03
#704000
0!
0"
0#
0$
0@
0=
0>
0?
15
0A
1P
04
1%
#708000
1$
1?
05
1O
0P
1&
0%
#712000
1#
0$
1>
0?
15
1N
0O
1'
0&
#716000
1$
1?
05
1M
0N
1(
0'
#720000
1"
0#
0$
1=
0>
0?
15
1L
0M
1)
0(
#724000
1$
1?
05
1K
0L
1*
0)
#728000
1#
0$
1>
0?
15
1J
0K
1+
0*
#732000
1$
1?
05
1I
0J
1,
0+
#736000
1!
0"
0#
0$
1@
0=
0>
0?
15
1H
0I
1-
0,
#740000
1$
1?
05
1G
0H
1.
0-
#744000
1#
0$
1>
0?
15
1F
0G
1/
0.
#748000
1$
1?
05
1E
0F
10
0/
#752000
1"
0#
0$
1=
0>
0?
15
1D
0E
11
00
#756000
1$
1?
05
1C
0D
12
01
#760000
1#
0$
1>
0?
15
1B
0C
13
02
#764000
1$
1?
05
1A
0B
14
03
#768000
0!
0"
0#
0$
0@
0=
0>
0?
15
0A
1P
04
1%
#772000
1$
1?
05
1O
0P
1&
0%
#776000
1#
0$
1>
0?
15
1N
0O
1'
0&
#780000
1$
1?
05
1M
0N
1(
0'
#784000
1"
0#
0$
1=
0>
0?
15
1L
0M
1)
0(
#788000
1$
1?
05
1K
0L
1*
0)
#792000
1#
0$
1>
0?
15
1J
0K
1+
0*
#796000
1$
1?
05
1I
0J
1,
0+
#800000
1!
0"
0#
0$
1@
0=
0>
0?
15
1H
0I
1-
0,
#804000
1$
1?
05
1G
0H
1.
0-
#808000
1#
0$
1>
0?
15
1F
0G
1/
0.
#812000
1$
1?
05
1E
0F
10
0/
#816000
1"
0#
0$
1=
0>
0?
15
1D
0E
11
00
#820000
1$
1?
05
1C
0D
12
01
#824000
1#
0$
1>
0?
15
1B
0C
13
02
#828000
1$
1?
05
1A
0B
14
03
#832000
0!
0"
0#
0$
0@
0=
0>
0?
15
0A
1P
04
1%
#836000
1$
1?
05
1O
0P
1&
0%
#840000
1#
0$
1>
0?
15
1N
0O
1'
0&
#844000
1$
1?
05
1M
0N
1(
0'
#848000
1"
0#
0$
1=
0>
0?
15
1L
0M
1)
0(
#852000
1$
1?
05
1K
0L
1*
0)
#856000
1#
0$
1>
0?
15
1J
0K
1+
0*
#860000
1$
1?
05
1I
0J
1,
0+
#864000
1!
0"
0#
0$
1@
0=
0>
0?
15
1H
0I
1-
0,
#868000
1$
1?
05
1G
0H
1.
0-
#872000
1#
0$
1>
0?
15
1F
0G
1/
0.
#876000
1$
1?
05
1E
0F
10
0/
#880000
1"
0#
0$
1=
0>
0?
15
1D
0E
11
00
#884000
1$
1?
05
1C
0D
12
01
#888000
1#
0$
1>
0?
15
1B
0C
13
02
#892000
1$
1?
05
1A
0B
14
03
#896000
0!
0"
0#
0$
0@
0=
0>
0?
15
0A
1P
04
1%
#900000
1$
1?
05
1O
0P
1&
0%
#904000
1#
0$
1>
0?
15
1N
0O
1'
0&
#908000
1$
1?
05
1M
0N
1(
0'
#912000
1"
0#
0$
1=
0>
0?
15
1L
0M
1)
0(
#916000
1$
1?
05
1K
0L
1*
0)
#920000
1#
0$
1>
0?
15
1J
0K
1+
0*
#924000
1$
1?
05
1I
0J
1,
0+
#928000
1!
0"
0#
0$
1@
0=
0>
0?
15
1H
0I
1-
0,
#932000
1$
1?
05
1G
0H
1.
0-
#936000
1#
0$
1>
0?
15
1F
0G
1/
0.
#940000
1$
1?
05
1E
0F
10
0/
#944000
1"
0#
0$
1=
0>
0?
15
1D
0E
11
00
#948000
1$
1?
05
1C
0D
12
01
#952000
1#
0$
1>
0?
15
1B
0C
13
02
#956000
1$
1?
05
1A
0B
14
03
#960000
0!
0"
0#
0$
0@
0=
0>
0?
15
0A
1P
04
1%
#964000
1$
1?
05
1O
0P
1&
0%
#968000
1#
0$
1>
0?
15
1N
0O
1'
0&
#972000
1$
1?
05
1M
0N
1(
0'
#976000
1"
0#
0$
1=
0>
0?
15
1L
0M
1)
0(
#980000
1$
1?
05
1K
0L
1*
0)
#984000
1#
0$
1>
0?
15
1J
0K
1+
0*
#988000
1$
1?
05
1I
0J
1,
0+
#992000
1!
0"
0#
0$
1@
0=
0>
0?
15
1H
0I
1-
0,
#996000
1$
1?
05
1G
0H
1.
0-
