lab6/simulation/qsim/lab6.msim.vcd
$comment
	File created using the following command:
		vcd file lab6.msim.vcd -direction
$end
$date
	Fri Oct 20 17:32:42 2023
$end
$version
	ModelSim Version 10.1d
$end
$timescale
	1ps
$end
$scope module lab6_vlg_vec_tst $end
$var reg 4 ! dat [3:0] $end
$var wire 1 " a $end
$var wire 1 # b $end
$var wire 1 $ c $end
$var wire 1 % d $end
$var wire 1 & e $end
$var wire 1 ' f $end
$var wire 1 ( g $end
$var wire 1 ) sampler $end
$scope module i1 $end
$var wire 1 * gnd $end
$var wire 1 + vcc $end
$var wire 1 , unknown $end
$var tri1 1 - devclrn $end
$var tri1 1 . devpor $end
$var tri1 1 / devoe $end
$var wire 1 0 ~QUARTUS_CREATED_GND~I_combout $end
$var wire 1 1 dat[2]~input_o $end
$var wire 1 2 dat[0]~input_o $end
$var wire 1 3 dat[1]~input_o $end
$var wire 1 4 dat[3]~input_o $end
$var wire 1 5 inst22~0_combout $end
$var wire 1 6 inst18~0_combout $end
$var wire 1 7 inst28~0_combout $end
$var wire 1 8 inst20~0_combout $end
$var wire 1 9 inst8~combout $end
$var wire 1 : inst15~0_combout $end
$var wire 1 ; inst14~0_combout $end
$upscope $end
$upscope $end
$enddefinitions $end
#0
$dumpvars
b0 !
0"
0#
0$
0%
0&
0'
1(
x)
0*
1+
x,
1-
1.
1/
00
01
02
03
04
15
16
17
18
19
1:
0;
$end
#20000
b1 !
12
0)
05
08
09
0:
1"
1%
1&
1'
#40000
b11 !
b10 !
02
13
1)
15
07
18
19
1;
0"
1$
0%
0&
0(
#60000
b11 !
12
0)
17
09
0$
1&
#80000
b111 !
b101 !
b100 !
02
03
11
1)
05
08
1:
1"
1%
0'
#100000
b101 !
12
0)
15
06
18
0"
1#
0%
#120000
b111 !
b110 !
02
13
1)
05
19
1"
0&
#140000
b111 !
12
0)
15
16
08
09
0:
0;
0"
0#
1%
1&
1'
1(
#160000
b1111 !
b1011 !
b1001 !
b1000 !
02
03
01
14
1)
18
19
1:
1;
0%
0&
0'
0(
#180000
b1001 !
12
0)
09
1&
#200000
b1011 !
b1010 !
02
13
1)
05
06
07
08
0:
0;
1"
1#
1$
1%
1'
1(
#220000
b1011 !
12
0)
#240000
b1111 !
b1101 !
b1100 !
02
03
11
1)
#260000
b1101 !
12
0)
#280000
b1111 !
b1110 !
02
13
1)
#300000
b1111 !
12
0)
#320000
b111 !
b11 !
b1 !
b0 !
02
03
01
04
1)
15
16
17
18
19
1:
0"
0#
0$
0%
0&
0'
#340000
b1 !
12
0)
05
08
09
0:
1"
1%
1&
1'
#360000
b11 !
b10 !
02
13
1)
15
07
18
19
1;
0"
1$
0%
0&
0(
#380000
b11 !
12
0)
17
09
0$
1&
#400000
b111 !
b101 !
b100 !
02
03
11
1)
05
08
1:
1"
1%
0'
#420000
b101 !
12
0)
15
06
18
0"
1#
0%
#440000
b111 !
b110 !
02
13
1)
05
19
1"
0&
#460000
b111 !
12
0)
15
16
08
09
0:
0;
0"
0#
1%
1&
1'
1(
#480000
b1111 !
b1011 !
b1001 !
b1000 !
02
03
01
14
1)
18
19
1:
1;
0%
0&
0'
0(
#500000
b1001 !
12
0)
09
1&
#520000
b1011 !
b1010 !
02
13
1)
05
06
07
08
0:
0;
1"
1#
1$
1%
1'
1(
#540000
b1011 !
12
0)
#560000
b1111 !
b1101 !
b1100 !
02
03
11
1)
#580000
b1101 !
12
0)
#600000
b1111 !
b1110 !
02
13
1)
#620000
b1111 !
12
0)
#640000
b111 !
b11 !
b1 !
b0 !
02
03
01
04
1)
15
16
17
18
19
1:
0"
0#
0$
0%
0&
0'
#660000
b1 !
12
0)
05
08
09
0:
1"
1%
1&
1'
#680000
b11 !
b10 !
02
13
1)
15
07
18
19
1;
0"
1$
0%
0&
0(
#700000
b11 !
12
0)
17
09
0$
1&
#720000
b111 !
b101 !
b100 !
02
03
11
1)
05
08
1:
1"
1%
0'
#740000
b101 !
12
0)
15
06
18
0"
1#
0%
#760000
b111 !
b110 !
02
13
1)
05
19
1"
0&
#780000
b111 !
12
0)
15
16
08
09
0:
0;
0"
0#
1%
1&
1'
1(
#800000
b1111 !
b1011 !
b1001 !
b1000 !
02
03
01
14
1)
18
19
1:
1;
0%
0&
0'
0(
#820000
b1001 !
12
0)
09
1&
#840000
b1011 !
b1010 !
02
13
1)
05
06
07
08
0:
0;
1"
1#
1$
1%
1'
1(
#860000
b1011 !
12
0)
#880000
b1111 !
b1101 !
b1100 !
02
03
11
1)
#900000
b1101 !
12
0)
#920000
b1111 !
b1110 !
02
13
1)
#940000
b1111 !
12
0)
#960000
b111 !
b11 !
b1 !
b0 !
02
03
01
04
1)
15
16
17
18
19
1:
0"
0#
0$
0%
0&
0'
#980000
b1 !
12
0)
05
08
09
0:
1"
1%
1&
1'
