Lab4/simulation/qsim/Lab4.msim.vcd
$comment
	File created using the following command:
		vcd file Lab4.msim.vcd -direction
$end
$date
	Thu Oct 05 12:56:34 2023
$end
$version
	ModelSim Version 10.1d
$end
$timescale
	1ps
$end
$scope module Lab4_vlg_vec_tst $end
$var reg 1 ! Ci $end
$var reg 4 " X [3:0] $end
$var reg 4 # Y [3:0] $end
$var wire 1 $ Co $end
$var wire 1 % S [7] $end
$var wire 1 & S [6] $end
$var wire 1 ' S [5] $end
$var wire 1 ( S [4] $end
$var wire 1 ) S [3] $end
$var wire 1 * S [2] $end
$var wire 1 + S [1] $end
$var wire 1 , S [0] $end
$var wire 1 - sampler $end
$scope module i1 $end
$var wire 1 . gnd $end
$var wire 1 / vcc $end
$var wire 1 0 unknown $end
$var tri1 1 1 devclrn $end
$var tri1 1 2 devpor $end
$var tri1 1 3 devoe $end
$var wire 1 4 ~QUARTUS_CREATED_GND~I_combout $end
$var wire 1 5 Ci~input_o $end
$var wire 1 6 X[2]~input_o $end
$var wire 1 7 Y[3]~input_o $end
$var wire 1 8 X[3]~input_o $end
$var wire 1 9 X[1]~input_o $end
$var wire 1 : Y[0]~input_o $end
$var wire 1 ; X[0]~input_o $end
$var wire 1 < Y[1]~input_o $end
$var wire 1 = inst5|inst5~combout $end
$var wire 1 > Y[2]~input_o $end
$var wire 1 ? 9~combout $end
$var wire 1 @ inst7|inst4~0_combout $end
$var wire 1 A inst2|inst4~combout $end
$var wire 1 B inst1|inst4~combout $end
$var wire 1 C inst|inst4~combout $end
$var wire 1 D inst5|inst4~combout $end
$var wire 1 E inst8|inst3~combout $end
$upscope $end
$upscope $end
$enddefinitions $end
#0
$dumpvars
0!
b0 "
b1111 #
0$
1,
1+
1*
1)
0(
0'
0&
0%
x-
0.
1/
x0
11
12
13
04
05
06
17
08
09
1:
0;
1<
0=
1>
0?
0@
0A
1B
1C
1D
1E
$end
#10000
1!
b1 "
b111 #
b11 #
b1 #
b0 #
15
0:
0<
0>
07
1;
0-
1=
1@
1A
0D
1'
1&
1%
1(
0+
0@
0A
0B
0C
0'
0&
0%
0(
0)
0*
#20000
b11 "
0!
b10 "
b1 #
05
1:
0;
19
1-
0=
1C
1D
1*
1+
0C
0*
#30000
b11 #
1!
b11 "
b10 #
15
1;
0:
1<
0-
1=
1@
1A
1B
1C
0D
1'
1&
1%
1(
1)
1*
0+
0@
0A
0B
0C
0'
0&
0%
0(
0)
0*
#40000
b111 "
b101 "
0!
b100 "
b11 #
05
1:
0;
09
16
1-
0=
1?
1B
1D
1$
1)
1+
0?
0B
1C
0$
0)
1*
#50000
b111 #
b101 #
1!
b101 "
b100 #
15
1;
0:
0<
1>
0-
1=
1@
1A
1B
0D
1'
1&
1%
1(
1)
0+
0@
0A
0B
0C
0'
0&
0%
0(
0)
0*
#60000
b111 "
0!
b110 "
b101 #
05
1:
0;
19
1-
0=
1?
1B
1C
1D
1$
1)
1*
1+
0C
0*
#70000
b111 #
1!
b111 "
b110 #
15
1;
0:
1<
0-
1=
0?
1@
1A
1C
0D
0$
1'
1&
1%
1(
1*
0+
0@
0A
0B
0C
0'
0&
0%
0(
0)
0*
#80000
b1111 "
b1011 "
b1001 "
0!
b1000 "
b111 #
05
1:
0;
09
06
18
1-
0=
1A
1D
1(
1+
0A
1B
1C
0(
1)
1*
#90000
b1111 #
b1011 #
b1001 #
1!
b1001 "
b1000 #
15
1;
0:
0<
0>
17
0-
1=
1@
1A
0D
1'
1&
1%
1(
0+
0@
0A
0B
0C
0'
0&
0%
0(
0)
0*
#100000
b1011 "
0!
b1010 "
b1001 #
05
1:
0;
19
1-
0=
1?
1A
1C
1D
1$
1(
1*
1+
0C
0*
#110000
b1011 #
1!
b1011 "
b1010 #
15
1;
0:
1<
0-
1=
0?
1@
1B
1C
0D
0$
1'
1&
1%
1)
1*
0+
0@
0A
0B
0C
0'
0&
0%
0(
0)
0*
#120000
b1111 "
b1101 "
0!
b1100 "
b1011 #
05
1:
0;
09
16
1-
0=
1A
1B
1D
1(
1)
1+
1?
0B
1C
1$
0)
1*
#130000
b1111 #
b1101 #
1!
b1101 "
b1100 #
15
1;
0:
0<
1>
0-
1=
0?
1@
1B
0D
0$
1'
1&
1%
1)
0+
0@
0A
0B
0C
0'
0&
0%
0(
0)
0*
#140000
b1111 "
0!
b1110 "
b1101 #
05
1:
0;
19
1-
0=
1A
1B
1C
1D
1(
1)
1*
1+
0C
0*
#150000
b1111 #
1!
b1111 "
b1110 #
15
1;
0:
1<
0-
1=
1@
1C
0D
1'
1&
1%
1*
0+
0@
0A
0B
0C
0'
0&
0%
0(
0)
0*
#160000
b111 "
b11 "
b1 "
0!
b0 "
b1111 #
05
1:
0;
09
06
08
1-
0=
1A
1D
1(
1+
0A
1B
1C
0(
1)
1*
#170000
b111 #
b11 #
b1 #
1!
b1 "
b0 #
15
1;
0:
0<
0>
07
0-
1=
1@
1A
0D
1'
1&
1%
1(
0+
0@
0A
0B
0C
0'
0&
0%
0(
0)
0*
#180000
b11 "
0!
b10 "
b1 #
05
1:
0;
19
1-
0=
1C
1D
1*
1+
0C
0*
#190000
b11 #
1!
b11 "
b10 #
15
1;
0:
1<
0-
1=
1@
1A
1B
1C
0D
1'
1&
1%
1(
1)
1*
0+
0@
0A
0B
0C
0'
0&
0%
0(
0)
0*
#200000
b111 "
b101 "
0!
b100 "
b11 #
05
1:
0;
09
16
1-
0=
1?
1B
1D
1$
1)
1+
0?
0B
1C
0$
0)
1*
#210000
b111 #
b101 #
1!
b101 "
b100 #
15
1;
0:
0<
1>
0-
1=
1@
1A
1B
0D
1'
1&
1%
1(
1)
0+
0@
0A
0B
0C
0'
0&
0%
0(
0)
0*
#220000
b111 "
0!
b110 "
b101 #
05
1:
0;
19
1-
0=
1?
1B
1C
1D
1$
1)
1*
1+
0C
0*
#230000
b111 #
1!
b111 "
b110 #
15
1;
0:
1<
0-
1=
0?
1@
1A
1C
0D
0$
1'
1&
1%
1(
1*
0+
0@
0A
0B
0C
0'
0&
0%
0(
0)
0*
#240000
b1111 "
b1011 "
b1001 "
0!
b1000 "
b111 #
05
1:
0;
09
06
18
1-
0=
1A
1D
1(
1+
0A
1B
1C
0(
1)
1*
#250000
b1111 #
b1011 #
b1001 #
1!
b1001 "
b1000 #
15
1;
0:
0<
0>
17
0-
1=
1@
1A
0D
1'
1&
1%
1(
0+
0@
0A
0B
0C
0'
0&
0%
0(
0)
0*
#260000
b1011 "
0!
b1010 "
b1001 #
05
1:
0;
19
1-
0=
1?
1A
1C
1D
1$
1(
1*
1+
0C
0*
#270000
b1011 #
1!
b1011 "
b1010 #
15
1;
0:
1<
0-
1=
0?
1@
1B
1C
0D
0$
1'
1&
1%
1)
1*
0+
0@
0A
0B
0C
0'
0&
0%
0(
0)
0*
#280000
b1111 "
b1101 "
0!
b1100 "
b1011 #
05
1:
0;
09
16
1-
0=
1A
1B
1D
1(
1)
1+
1?
0B
1C
1$
0)
1*
#290000
b1111 #
b1101 #
1!
b1101 "
b1100 #
15
1;
0:
0<
1>
0-
1=
0?
1@
1B
0D
0$
1'
1&
1%
1)
0+
0@
0A
0B
0C
0'
0&
0%
0(
0)
0*
#300000
b1111 "
0!
b1110 "
b1101 #
05
1:
0;
19
1-
0=
1A
1B
1C
1D
1(
1)
1*
1+
0C
0*
#310000
b1111 #
1!
b1111 "
b1110 #
15
1;
0:
1<
0-
1=
1@
1C
0D
1'
1&
1%
1*
0+
0@
0A
0B
0C
0'
0&
0%
0(
0)
0*
#320000
b111 "
b11 "
b1 "
0!
b0 "
b1111 #
05
1:
0;
09
06
08
1-
0=
1A
1D
1(
1+
0A
1B
1C
0(
1)
1*
#330000
b111 #
b11 #
b1 #
1!
b1 "
b0 #
15
1;
0:
0<
0>
07
0-
1=
1@
1A
0D
1'
1&
1%
1(
0+
0@
0A
0B
0C
0'
0&
0%
0(
0)
0*
#340000
b11 "
0!
b10 "
b1 #
05
1:
0;
19
1-
0=
1C
1D
1*
1+
0C
0*
#350000
b11 #
1!
b11 "
b10 #
15
1;
0:
1<
0-
1=
1@
1A
1B
1C
0D
1'
1&
1%
1(
1)
1*
0+
0@
0A
0B
0C
0'
0&
0%
0(
0)
0*
#360000
b111 "
b101 "
0!
b100 "
b11 #
05
1:
0;
09
16
1-
0=
1?
1B
1D
1$
1)
1+
0?
0B
1C
0$
0)
1*
#370000
b111 #
b101 #
1!
b101 "
b100 #
15
1;
0:
0<
1>
0-
1=
1@
1A
1B
0D
1'
1&
1%
1(
1)
0+
0@
0A
0B
0C
0'
0&
0%
0(
0)
0*
#380000
b111 "
0!
b110 "
b101 #
05
1:
0;
19
1-
0=
1?
1B
1C
1D
1$
1)
1*
1+
0C
0*
#390000
b111 #
1!
b111 "
b110 #
15
1;
0:
1<
0-
1=
0?
1@
1A
1C
0D
0$
1'
1&
1%
1(
1*
0+
0@
0A
0B
0C
0'
0&
0%
0(
0)
0*
#400000
b1111 "
b1011 "
b1001 "
0!
b1000 "
b111 #
05
1:
0;
09
06
18
1-
0=
1A
1D
1(
1+
0A
1B
1C
0(
1)
1*
#410000
b1111 #
b1011 #
b1001 #
1!
b1001 "
b1000 #
15
1;
0:
0<
0>
17
0-
1=
1@
1A
0D
1'
1&
1%
1(
0+
0@
0A
0B
0C
0'
0&
0%
0(
0)
0*
#420000
b1011 "
0!
b1010 "
b1001 #
05
1:
0;
19
1-
0=
1?
1A
1C
1D
1$
1(
1*
1+
0C
0*
#430000
b1011 #
1!
b1011 "
b1010 #
15
1;
0:
1<
0-
1=
0?
1@
1B
1C
0D
0$
1'
1&
1%
1)
1*
0+
0@
0A
0B
0C
0'
0&
0%
0(
0)
0*
#440000
b1111 "
b1101 "
0!
b1100 "
b1011 #
05
1:
0;
09
16
1-
0=
1A
1B
1D
1(
1)
1+
1?
0B
1C
1$
0)
1*
#450000
b1111 #
b1101 #
1!
b1101 "
b1100 #
15
1;
0:
0<
1>
0-
1=
0?
1@
1B
0D
0$
1'
1&
1%
1)
0+
0@
0A
0B
0C
0'
0&
0%
0(
0)
0*
#460000
b1111 "
0!
b1110 "
b1101 #
05
1:
0;
19
1-
0=
1A
1B
1C
1D
1(
1)
1*
1+
0C
0*
#470000
b1111 #
1!
b1111 "
b1110 #
15
1;
0:
1<
0-
1=
1@
1C
0D
1'
1&
1%
1*
0+
0@
0A
0B
0C
0'
0&
0%
0(
0)
0*
#480000
b111 "
b11 "
b1 "
0!
b0 "
b1111 #
05
1:
0;
09
06
08
1-
0=
1A
1D
1(
1+
0A
1B
1C
0(
1)
1*
#490000
b111 #
b11 #
b1 #
1!
b1 "
b0 #
15
1;
0:
0<
0>
07
0-
1=
1@
1A
0D
1'
1&
1%
1(
0+
0@
0A
0B
0C
0'
0&
0%
0(
0)
0*
#500000
b11 "
0!
b10 "
b1 #
05
1:
0;
19
1-
0=
1C
1D
1*
1+
0C
0*
#510000
b11 #
1!
b11 "
b10 #
15
1;
0:
1<
0-
1=
1@
1A
1B
1C
0D
1'
1&
1%
1(
1)
1*
0+
0@
0A
0B
0C
0'
0&
0%
0(
0)
0*
#520000
b111 "
b101 "
0!
b100 "
b11 #
05
1:
0;
09
16
1-
0=
1?
1B
1D
1$
1)
1+
0?
0B
1C
0$
0)
1*
#530000
b111 #
b101 #
1!
b101 "
b100 #
15
1;
0:
0<
1>
0-
1=
1@
1A
1B
0D
1'
1&
1%
1(
1)
0+
0@
0A
0B
0C
0'
0&
0%
0(
0)
0*
#540000
b111 "
0!
b110 "
b101 #
05
1:
0;
19
1-
0=
1?
1B
1C
1D
1$
1)
1*
1+
0C
0*
#550000
b111 #
1!
b111 "
b110 #
15
1;
0:
1<
0-
1=
0?
1@
1A
1C
0D
0$
1'
1&
1%
1(
1*
0+
0@
0A
0B
0C
0'
0&
0%
0(
0)
0*
#560000
b1111 "
b1011 "
b1001 "
0!
b1000 "
b111 #
05
1:
0;
09
06
18
1-
0=
1A
1D
1(
1+
0A
1B
1C
0(
1)
1*
#570000
b1111 #
b1011 #
b1001 #
1!
b1001 "
b1000 #
15
1;
0:
0<
0>
17
0-
1=
1@
1A
0D
1'
1&
1%
1(
0+
0@
0A
0B
0C
0'
0&
0%
0(
0)
0*
#580000
b1011 "
0!
b1010 "
b1001 #
05
1:
0;
19
1-
0=
1?
1A
1C
1D
1$
1(
1*
1+
0C
0*
#590000
b1011 #
1!
b1011 "
b1010 #
15
1;
0:
1<
0-
1=
0?
1@
1B
1C
0D
0$
1'
1&
1%
1)
1*
0+
0@
0A
0B
0C
0'
0&
0%
0(
0)
0*
#600000
b1111 "
b1101 "
0!
b1100 "
b1011 #
05
1:
0;
09
16
1-
0=
1A
1B
1D
1(
1)
1+
1?
0B
1C
1$
0)
1*
#610000
b1111 #
b1101 #
1!
b1101 "
b1100 #
15
1;
0:
0<
1>
0-
1=
0?
1@
1B
0D
0$
1'
1&
1%
1)
0+
0@
0A
0B
0C
0'
0&
0%
0(
0)
0*
#620000
b1111 "
0!
b1110 "
b1101 #
05
1:
0;
19
1-
0=
1A
1B
1C
1D
1(
1)
1*
1+
0C
0*
#630000
b1111 #
1!
b1111 "
b1110 #
15
1;
0:
1<
0-
1=
1@
1C
0D
1'
1&
1%
1*
0+
0@
0A
0B
0C
0'
0&
0%
0(
0)
0*
#640000
b111 "
b11 "
b1 "
0!
b0 "
b1111 #
05
1:
0;
09
06
08
1-
0=
1A
1D
1(
1+
0A
1B
1C
0(
1)
1*
#650000
b111 #
b11 #
b1 #
1!
b1 "
b0 #
15
1;
0:
0<
0>
07
0-
1=
1@
1A
0D
1'
1&
1%
1(
0+
0@
0A
0B
0C
0'
0&
0%
0(
0)
0*
#660000
b11 "
0!
b10 "
b1 #
05
1:
0;
19
1-
0=
1C
1D
1*
1+
0C
0*
#670000
b11 #
1!
b11 "
b10 #
15
1;
0:
1<
0-
1=
1@
1A
1B
1C
0D
1'
1&
1%
1(
1)
1*
0+
0@
0A
0B
0C
0'
0&
0%
0(
0)
0*
#680000
b111 "
b101 "
0!
b100 "
b11 #
05
1:
0;
09
16
1-
0=
1?
1B
1D
1$
1)
1+
0?
0B
1C
0$
0)
1*
#690000
b111 #
b101 #
1!
b101 "
b100 #
15
1;
0:
0<
1>
0-
1=
1@
1A
1B
0D
1'
1&
1%
1(
1)
0+
0@
0A
0B
0C
0'
0&
0%
0(
0)
0*
#700000
b111 "
0!
b110 "
b101 #
05
1:
0;
19
1-
0=
1?
1B
1C
1D
1$
1)
1*
1+
0C
0*
#710000
b111 #
1!
b111 "
b110 #
15
1;
0:
1<
0-
1=
0?
1@
1A
1C
0D
0$
1'
1&
1%
1(
1*
0+
0@
0A
0B
0C
0'
0&
0%
0(
0)
0*
#720000
b1111 "
b1011 "
b1001 "
0!
b1000 "
b111 #
05
1:
0;
09
06
18
1-
0=
1A
1D
1(
1+
0A
1B
1C
0(
1)
1*
#730000
b1111 #
b1011 #
b1001 #
1!
b1001 "
b1000 #
15
1;
0:
0<
0>
17
0-
1=
1@
1A
0D
1'
1&
1%
1(
0+
0@
0A
0B
0C
0'
0&
0%
0(
0)
0*
#740000
b1011 "
0!
b1010 "
b1001 #
05
1:
0;
19
1-
0=
1?
1A
1C
1D
1$
1(
1*
1+
0C
0*
#750000
b1011 #
1!
b1011 "
b1010 #
15
1;
0:
1<
0-
1=
0?
1@
1B
1C
0D
0$
1'
1&
1%
1)
1*
0+
0@
0A
0B
0C
0'
0&
0%
0(
0)
0*
#760000
b1111 "
b1101 "
0!
b1100 "
b1011 #
05
1:
0;
09
16
1-
0=
1A
1B
1D
1(
1)
1+
1?
0B
1C
1$
0)
1*
#770000
b1111 #
b1101 #
1!
b1101 "
b1100 #
15
1;
0:
0<
1>
0-
1=
0?
1@
1B
0D
0$
1'
1&
1%
1)
0+
0@
0A
0B
0C
0'
0&
0%
0(
0)
0*
#780000
b1111 "
0!
b1110 "
b1101 #
05
1:
0;
19
1-
0=
1A
1B
1C
1D
1(
1)
1*
1+
0C
0*
#790000
b1111 #
1!
b1111 "
b1110 #
15
1;
0:
1<
0-
1=
1@
1C
0D
1'
1&
1%
1*
0+
0@
0A
0B
0C
0'
0&
0%
0(
0)
0*
#800000
b111 "
b11 "
b1 "
0!
b0 "
b1111 #
05
1:
0;
09
06
08
1-
0=
1A
1D
1(
1+
0A
1B
1C
0(
1)
1*
#810000
b111 #
b11 #
b1 #
1!
b1 "
b0 #
15
1;
0:
0<
0>
07
0-
1=
1@
1A
0D
1'
1&
1%
1(
0+
0@
0A
0B
0C
0'
0&
0%
0(
0)
0*
#820000
b11 "
0!
b10 "
b1 #
05
1:
0;
19
1-
0=
1C
1D
1*
1+
0C
0*
#830000
b11 #
1!
b11 "
b10 #
15
1;
0:
1<
0-
1=
1@
1A
1B
1C
0D
1'
1&
1%
1(
1)
1*
0+
0@
0A
0B
0C
0'
0&
0%
0(
0)
0*
#840000
b111 "
b101 "
0!
b100 "
b11 #
05
1:
0;
09
16
1-
0=
1?
1B
1D
1$
1)
1+
0?
0B
1C
0$
0)
1*
#850000
b111 #
b101 #
1!
b101 "
b100 #
15
1;
0:
0<
1>
0-
1=
1@
1A
1B
0D
1'
1&
1%
1(
1)
0+
0@
0A
0B
0C
0'
0&
0%
0(
0)
0*
#860000
b111 "
0!
b110 "
b101 #
05
1:
0;
19
1-
0=
1?
1B
1C
1D
1$
1)
1*
1+
0C
0*
#870000
b111 #
1!
b111 "
b110 #
15
1;
0:
1<
0-
1=
0?
1@
1A
1C
0D
0$
1'
1&
1%
1(
1*
0+
0@
0A
0B
0C
0'
0&
0%
0(
0)
0*
#880000
b1111 "
b1011 "
b1001 "
0!
b1000 "
b111 #
05
1:
0;
09
06
18
1-
0=
1A
1D
1(
1+
0A
1B
1C
0(
1)
1*
#890000
b1111 #
b1011 #
b1001 #
1!
b1001 "
b1000 #
15
1;
0:
0<
0>
17
0-
1=
1@
1A
0D
1'
1&
1%
1(
0+
0@
0A
0B
0C
0'
0&
0%
0(
0)
0*
#900000
b1011 "
0!
b1010 "
b1001 #
05
1:
0;
19
1-
0=
1?
1A
1C
1D
1$
1(
1*
1+
0C
0*
#910000
b1011 #
1!
b1011 "
b1010 #
15
1;
0:
1<
0-
1=
0?
1@
1B
1C
0D
0$
1'
1&
1%
1)
1*
0+
0@
0A
0B
0C
0'
0&
0%
0(
0)
0*
#920000
b1111 "
b1101 "
0!
b1100 "
b1011 #
05
1:
0;
09
16
1-
0=
1A
1B
1D
1(
1)
1+
1?
0B
1C
1$
0)
1*
#930000
b1111 #
b1101 #
1!
b1101 "
b1100 #
15
1;
0:
0<
1>
0-
1=
0?
1@
1B
0D
0$
1'
1&
1%
1)
0+
0@
0A
0B
0C
0'
0&
0%
0(
0)
0*
#940000
b1111 "
0!
b1110 "
b1101 #
05
1:
0;
19
1-
0=
1A
1B
1C
1D
1(
1)
1*
1+
0C
0*
#950000
b1111 #
1!
b1111 "
b1110 #
15
1;
0:
1<
0-
1=
1@
1C
0D
1'
1&
1%
1*
0+
0@
0A
0B
0C
0'
0&
0%
0(
0)
0*
#960000
b111 "
b11 "
b1 "
0!
b0 "
b1111 #
05
1:
0;
09
06
08
1-
0=
1A
1D
1(
1+
0A
1B
1C
0(
1)
1*
#970000
b111 #
b11 #
b1 #
1!
b1 "
b0 #
15
1;
0:
0<
0>
07
0-
1=
1@
1A
0D
1'
1&
1%
1(
0+
0@
0A
0B
0C
0'
0&
0%
0(
0)
0*
#980000
b11 "
0!
b10 "
b1 #
05
1:
0;
19
1-
0=
1C
1D
1*
1+
0C
0*
#990000
b11 #
1!
b11 "
b10 #
15
1;
0:
1<
0-
1=
1@
1A
1B
1C
0D
1'
1&
1%
1(
1)
1*
0+
0@
0A
0B
0C
0'
0&
0%
0(
0)
0*
