lab6_p2/simulation/qsim/lab6_p2.msim.vcd
$comment
	File created using the following command:
		vcd file lab6_p2.msim.vcd -direction
$end
$date
	Fri Oct 20 18:46:08 2023
$end
$version
	ModelSim Version 10.1d
$end
$timescale
	1ps
$end
$scope module lab6_p2_vlg_vec_tst $end
$var reg 1 ! A0 $end
$var reg 1 " A1 $end
$var reg 1 # A2 $end
$var reg 1 $ A3 $end
$var wire 1 % A $end
$var wire 1 & b $end
$var wire 1 ' c $end
$var wire 1 ( d $end
$var wire 1 ) e $end
$var wire 1 * f $end
$var wire 1 + g $end
$var wire 1 , sampler $end
$scope module i1 $end
$var wire 1 - gnd $end
$var wire 1 . vcc $end
$var wire 1 / unknown $end
$var tri1 1 0 devclrn $end
$var tri1 1 1 devpor $end
$var tri1 1 2 devoe $end
$var wire 1 3 ~QUARTUS_CREATED_GND~I_combout $end
$var wire 1 4 A2~input_o $end
$var wire 1 5 A0~input_o $end
$var wire 1 6 A1~input_o $end
$var wire 1 7 A3~input_o $end
$var wire 1 8 inst8~combout $end
$var wire 1 9 inst10~combout $end
$var wire 1 : inst13~combout $end
$var wire 1 ; inst17~0_combout $end
$var wire 1 < inst19~0_combout $end
$var wire 1 = inst20~0_combout $end
$var wire 1 > inst24~0_combout $end
$upscope $end
$upscope $end
$enddefinitions $end
#0
$dumpvars
0!
0"
0#
0$
0%
0&
0'
0(
0)
0*
1+
x,
0-
1.
x/
10
11
12
03
04
05
06
07
18
19
1:
1;
1<
1=
0>
$end
#5000
1$
17
0,
1>
0+
#10000
1#
0$
14
07
1,
08
0;
0<
1%
1(
1)
#15000
1$
17
0,
18
1;
0%
0(
#20000
1"
0#
0$
16
04
07
1,
0:
1<
0=
1'
0)
1*
#25000
1$
17
0,
1=
0*
#30000
1#
0$
14
07
1,
09
1:
1&
0'
#35000
1$
17
0,
#40000
1!
0"
0#
0$
15
06
04
07
1,
08
19
0;
0<
0=
0>
1%
0&
1(
1)
1*
1+
#45000
1$
17
0,
18
1;
1=
1>
0%
0(
0*
0+
#50000
1#
0$
14
07
1,
09
1&
#55000
1$
17
0,
#60000
1"
0#
0$
16
04
07
1,
19
0=
0&
1*
#65000
1$
17
0,
1=
0*
#70000
1#
0$
14
07
1,
0;
0=
0>
1(
1*
1+
#75000
1$
17
0,
1;
1=
1>
0(
0*
0+
#80000
0!
0"
0#
0$
05
06
04
07
1,
1<
0>
0)
1+
#85000
1$
17
0,
1>
0+
#90000
1#
0$
14
07
1,
08
0;
0<
1%
1(
1)
#95000
1$
17
0,
18
1;
0%
0(
#100000
1"
0#
0$
16
04
07
1,
0:
1<
0=
1'
0)
1*
#105000
1$
17
0,
1=
0*
#110000
1#
0$
14
07
1,
09
1:
1&
0'
#115000
1$
17
0,
#120000
1!
0"
0#
0$
15
06
04
07
1,
08
19
0;
0<
0=
0>
1%
0&
1(
1)
1*
1+
#125000
1$
17
0,
18
1;
1=
1>
0%
0(
0*
0+
#130000
1#
0$
14
07
1,
09
1&
#135000
1$
17
0,
#140000
1"
0#
0$
16
04
07
1,
19
0=
0&
1*
#145000
1$
17
0,
1=
0*
#150000
1#
0$
14
07
1,
0;
0=
0>
1(
1*
1+
#155000
1$
17
0,
1;
1=
1>
0(
0*
0+
#160000
0!
0"
0#
0$
05
06
04
07
1,
1<
0>
0)
1+
#165000
1$
17
0,
1>
0+
#170000
1#
0$
14
07
1,
08
0;
0<
1%
1(
1)
#175000
1$
17
0,
18
1;
0%
0(
#180000
1"
0#
0$
16
04
07
1,
0:
1<
0=
1'
0)
1*
#185000
1$
17
0,
1=
0*
#190000
1#
0$
14
07
1,
09
1:
1&
0'
#195000
1$
17
0,
#200000
1!
0"
0#
0$
15
06
04
07
1,
08
19
0;
0<
0=
0>
1%
0&
1(
1)
1*
1+
#205000
1$
17
0,
18
1;
1=
1>
0%
0(
0*
0+
#210000
1#
0$
14
07
1,
09
1&
#215000
1$
17
0,
#220000
1"
0#
0$
16
04
07
1,
19
0=
0&
1*
#225000
1$
17
0,
1=
0*
#230000
1#
0$
14
07
1,
0;
0=
0>
1(
1*
1+
#235000
1$
17
0,
1;
1=
1>
0(
0*
0+
#240000
0!
0"
0#
0$
05
06
04
07
1,
1<
0>
0)
1+
#245000
1$
17
0,
1>
0+
#250000
1#
0$
14
07
1,
08
0;
0<
1%
1(
1)
#255000
1$
17
0,
18
1;
0%
0(
#260000
1"
0#
0$
16
04
07
1,
0:
1<
0=
1'
0)
1*
#265000
1$
17
0,
1=
0*
#270000
1#
0$
14
07
1,
09
1:
1&
0'
#275000
1$
17
0,
#280000
1!
0"
0#
0$
15
06
04
07
1,
08
19
0;
0<
0=
0>
1%
0&
1(
1)
1*
1+
#285000
1$
17
0,
18
1;
1=
1>
0%
0(
0*
0+
#290000
1#
0$
14
07
1,
09
1&
#295000
1$
17
0,
#300000
1"
0#
0$
16
04
07
1,
19
0=
0&
1*
#305000
1$
17
0,
1=
0*
#310000
1#
0$
14
07
1,
0;
0=
0>
1(
1*
1+
#315000
1$
17
0,
1;
1=
1>
0(
0*
0+
#320000
0!
0"
0#
0$
05
06
04
07
1,
1<
0>
0)
1+
#325000
1$
17
0,
1>
0+
#330000
1#
0$
14
07
1,
08
0;
0<
1%
1(
1)
#335000
1$
17
0,
18
1;
0%
0(
#340000
1"
0#
0$
16
04
07
1,
0:
1<
0=
1'
0)
1*
#345000
1$
17
0,
1=
0*
#350000
1#
0$
14
07
1,
09
1:
1&
0'
#355000
1$
17
0,
#360000
1!
0"
0#
0$
15
06
04
07
1,
08
19
0;
0<
0=
0>
1%
0&
1(
1)
1*
1+
#365000
1$
17
0,
18
1;
1=
1>
0%
0(
0*
0+
#370000
1#
0$
14
07
1,
09
1&
#375000
1$
17
0,
#380000
1"
0#
0$
16
04
07
1,
19
0=
0&
1*
#385000
1$
17
0,
1=
0*
#390000
1#
0$
14
07
1,
0;
0=
0>
1(
1*
1+
#395000
1$
17
0,
1;
1=
1>
0(
0*
0+
#400000
0!
0"
0#
0$
05
06
04
07
1,
1<
0>
0)
1+
#405000
1$
17
0,
1>
0+
#410000
1#
0$
14
07
1,
08
0;
0<
1%
1(
1)
#415000
1$
17
0,
18
1;
0%
0(
#420000
1"
0#
0$
16
04
07
1,
0:
1<
0=
1'
0)
1*
#425000
1$
17
0,
1=
0*
#430000
1#
0$
14
07
1,
09
1:
1&
0'
#435000
1$
17
0,
#440000
1!
0"
0#
0$
15
06
04
07
1,
08
19
0;
0<
0=
0>
1%
0&
1(
1)
1*
1+
#445000
1$
17
0,
18
1;
1=
1>
0%
0(
0*
0+
#450000
1#
0$
14
07
1,
09
1&
#455000
1$
17
0,
#460000
1"
0#
0$
16
04
07
1,
19
0=
0&
1*
#465000
1$
17
0,
1=
0*
#470000
1#
0$
14
07
1,
0;
0=
0>
1(
1*
1+
#475000
1$
17
0,
1;
1=
1>
0(
0*
0+
#480000
0!
0"
0#
0$
05
06
04
07
1,
1<
0>
0)
1+
#485000
1$
17
0,
1>
0+
#490000
1#
0$
14
07
1,
08
0;
0<
1%
1(
1)
#495000
1$
17
0,
18
1;
0%
0(
#500000
1"
0#
0$
16
04
07
1,
0:
1<
0=
1'
0)
1*
#505000
1$
17
0,
1=
0*
#510000
1#
0$
14
07
1,
09
1:
1&
0'
#515000
1$
17
0,
#520000
1!
0"
0#
0$
15
06
04
07
1,
08
19
0;
0<
0=
0>
1%
0&
1(
1)
1*
1+
#525000
1$
17
0,
18
1;
1=
1>
0%
0(
0*
0+
#530000
1#
0$
14
07
1,
09
1&
#535000
1$
17
0,
#540000
1"
0#
0$
16
04
07
1,
19
0=
0&
1*
#545000
1$
17
0,
1=
0*
#550000
1#
0$
14
07
1,
0;
0=
0>
1(
1*
1+
#555000
1$
17
0,
1;
1=
1>
0(
0*
0+
#560000
0!
0"
0#
0$
05
06
04
07
1,
1<
0>
0)
1+
#565000
1$
17
0,
1>
0+
#570000
1#
0$
14
07
1,
08
0;
0<
1%
1(
1)
#575000
1$
17
0,
18
1;
0%
0(
#580000
1"
0#
0$
16
04
07
1,
0:
1<
0=
1'
0)
1*
#585000
1$
17
0,
1=
0*
#590000
1#
0$
14
07
1,
09
1:
1&
0'
#595000
1$
17
0,
#600000
1!
0"
0#
0$
15
06
04
07
1,
08
19
0;
0<
0=
0>
1%
0&
1(
1)
1*
1+
#605000
1$
17
0,
18
1;
1=
1>
0%
0(
0*
0+
#610000
1#
0$
14
07
1,
09
1&
#615000
1$
17
0,
#620000
1"
0#
0$
16
04
07
1,
19
0=
0&
1*
#625000
1$
17
0,
1=
0*
#630000
1#
0$
14
07
1,
0;
0=
0>
1(
1*
1+
#635000
1$
17
0,
1;
1=
1>
0(
0*
0+
#640000
0!
0"
0#
0$
05
06
04
07
1,
1<
0>
0)
1+
#645000
1$
17
0,
1>
0+
#650000
1#
0$
14
07
1,
08
0;
0<
1%
1(
1)
#655000
1$
17
0,
18
1;
0%
0(
#660000
1"
0#
0$
16
04
07
1,
0:
1<
0=
1'
0)
1*
#665000
1$
17
0,
1=
0*
#670000
1#
0$
14
07
1,
09
1:
1&
0'
#675000
1$
17
0,
#680000
1!
0"
0#
0$
15
06
04
07
1,
08
19
0;
0<
0=
0>
1%
0&
1(
1)
1*
1+
#685000
1$
17
0,
18
1;
1=
1>
0%
0(
0*
0+
#690000
1#
0$
14
07
1,
09
1&
#695000
1$
17
0,
#700000
1"
0#
0$
16
04
07
1,
19
0=
0&
1*
#705000
1$
17
0,
1=
0*
#710000
1#
0$
14
07
1,
0;
0=
0>
1(
1*
1+
#715000
1$
17
0,
1;
1=
1>
0(
0*
0+
#720000
0!
0"
0#
0$
05
06
04
07
1,
1<
0>
0)
1+
#725000
1$
17
0,
1>
0+
#730000
1#
0$
14
07
1,
08
0;
0<
1%
1(
1)
#735000
1$
17
0,
18
1;
0%
0(
#740000
1"
0#
0$
16
04
07
1,
0:
1<
0=
1'
0)
1*
#745000
1$
17
0,
1=
0*
#750000
1#
0$
14
07
1,
09
1:
1&
0'
#755000
1$
17
0,
#760000
1!
0"
0#
0$
15
06
04
07
1,
08
19
0;
0<
0=
0>
1%
0&
1(
1)
1*
1+
#765000
1$
17
0,
18
1;
1=
1>
0%
0(
0*
0+
#770000
1#
0$
14
07
1,
09
1&
#775000
1$
17
0,
#780000
1"
0#
0$
16
04
07
1,
19
0=
0&
1*
#785000
1$
17
0,
1=
0*
#790000
1#
0$
14
07
1,
0;
0=
0>
1(
1*
1+
#795000
1$
17
0,
1;
1=
1>
0(
0*
0+
#800000
0!
0"
0#
0$
05
06
04
07
1,
1<
0>
0)
1+
#805000
1$
17
0,
1>
0+
#810000
1#
0$
14
07
1,
08
0;
0<
1%
1(
1)
#815000
1$
17
0,
18
1;
0%
0(
#820000
1"
0#
0$
16
04
07
1,
0:
1<
0=
1'
0)
1*
#825000
1$
17
0,
1=
0*
#830000
1#
0$
14
07
1,
09
1:
1&
0'
#835000
1$
17
0,
#840000
1!
0"
0#
0$
15
06
04
07
1,
08
19
0;
0<
0=
0>
1%
0&
1(
1)
1*
1+
#845000
1$
17
0,
18
1;
1=
1>
0%
0(
0*
0+
#850000
1#
0$
14
07
1,
09
1&
#855000
1$
17
0,
#860000
1"
0#
0$
16
04
07
1,
19
0=
0&
1*
#865000
1$
17
0,
1=
0*
#870000
1#
0$
14
07
1,
0;
0=
0>
1(
1*
1+
#875000
1$
17
0,
1;
1=
1>
0(
0*
0+
#880000
0!
0"
0#
0$
05
06
04
07
1,
1<
0>
0)
1+
#885000
1$
17
0,
1>
0+
#890000
1#
0$
14
07
1,
08
0;
0<
1%
1(
1)
#895000
1$
17
0,
18
1;
0%
0(
#900000
1"
0#
0$
16
04
07
1,
0:
1<
0=
1'
0)
1*
#905000
1$
17
0,
1=
0*
#910000
1#
0$
14
07
1,
09
1:
1&
0'
#915000
1$
17
0,
#920000
1!
0"
0#
0$
15
06
04
07
1,
08
19
0;
0<
0=
0>
1%
0&
1(
1)
1*
1+
#925000
1$
17
0,
18
1;
1=
1>
0%
0(
0*
0+
#930000
1#
0$
14
07
1,
09
1&
#935000
1$
17
0,
#940000
1"
0#
0$
16
04
07
1,
19
0=
0&
1*
#945000
1$
17
0,
1=
0*
#950000
1#
0$
14
07
1,
0;
0=
0>
1(
1*
1+
#955000
1$
17
0,
1;
1=
1>
0(
0*
0+
#960000
0!
0"
0#
0$
05
06
04
07
1,
1<
0>
0)
1+
#965000
1$
17
0,
1>
0+
#970000
1#
0$
14
07
1,
08
0;
0<
1%
1(
1)
#975000
1$
17
0,
18
1;
0%
0(
#980000
1"
0#
0$
16
04
07
1,
0:
1<
0=
1'
0)
1*
#985000
1$
17
0,
1=
0*
#990000
1#
0$
14
07
1,
09
1:
1&
0'
#995000
1$
17
0,
